%YAML 1.1
%TAG !u! tag:unity3d.com,2011:
--- !u!114 &11400000
MonoBehaviour:
  m_ObjectHideFlags: 0
  m_CorrespondingSourceObject: {fileID: 0}
  m_PrefabInstance: {fileID: 0}
  m_PrefabAsset: {fileID: 0}
  m_GameObject: {fileID: 0}
  m_Enabled: 1
  m_EditorHideFlags: 0
  m_Script: {fileID: 11500000, guid: 433c72c9c69be0a4482e2e5945611dcd, type: 3}
  m_Name: Zombie_Easy
  m_EditorClassIdentifier: 
  skinMesh: {fileID: 4300000, guid: 40fb85fe39c8504479e16216a60d6891, type: 3}
  skinMaterial: {fileID: 2100000, guid: 7eebe787af0fd284f94e29361df0eb5a, type: 2}
  speedMove: 13
