%YAML 1.1
%TAG !u! tag:unity3d.com,2011:
--- !u!114 &11400000
MonoBehaviour:
  m_ObjectHideFlags: 0
  m_CorrespondingSourceObject: {fileID: 0}
  m_PrefabInstance: {fileID: 0}
  m_PrefabAsset: {fileID: 0}
  m_GameObject: {fileID: 0}
  m_Enabled: 1
  m_EditorHideFlags: 0
  m_Script: {fileID: 11500000, guid: ae204244c8151774ea1dc284c7a81a88, type: 3}
  m_Name: Item_RakeAxeTrap
  m_EditorClassIdentifier: 
  itemMesh: {fileID: 4300000, guid: 223d95b601c719a418feab8b5dcdf7cc, type: 3}
